\relax 
\@writefile{toc}{\contentsline {section}{\numberline {1}Git Vocabulary}{1}}
\@writefile{toc}{\contentsline {section}{\numberline {2}Working with Command/Terminal/Git Bash}{1}}
\@writefile{toc}{\contentsline {section}{\numberline {3}Initializing a Repo}{2}}
\@writefile{toc}{\contentsline {section}{\numberline {4}Staging and Commiting}{2}}
\@writefile{toc}{\contentsline {section}{\numberline {5}Restoring to Latest Commit}{2}}
\@writefile{toc}{\contentsline {section}{\numberline {6}Sync Local Repo with a Repo Hosting Service}{2}}
\@writefile{toc}{\contentsline {section}{\numberline {7}Push and Pull}{2}}
\@writefile{toc}{\contentsline {section}{\numberline {8}Cloning}{2}}
