# Fdb version 3
["pdflatex"] 1531374153 "y:/GitHub/learning-git/reference/ref.tex" "ref.pdf" "ref" 1531374153
  "C:/Program Files/MiKTeX 2.9/fonts/tfm/public/cm/cmr10.tfm" 1136765053 1296 45809c5a464d5f32c8f98ba97c1bb47f ""
  "C:/Program Files/MiKTeX 2.9/tex/generic/ifxetex/ifxetex.sty" 1284260789 1458 43ab4710dc82f3edeabecd0d099626b2 ""
  "C:/Program Files/MiKTeX 2.9/tex/generic/oberdiek/ifpdf.sty" 1522794634 1251 d170e11a3246c3392bc7f59595af42cb ""
  "C:/Program Files/MiKTeX 2.9/tex/generic/oberdiek/ifvtex.sty" 1522794634 6797 90b7f83b0ad46826bc16058b1e3d48df ""
  "C:/Program Files/MiKTeX 2.9/tex/generic/unicode-data/UnicodeData.txt" 1528522844 1769137 acc291106c3758d2025f8d7bd5518bee ""
  "C:/Program Files/MiKTeX 2.9/tex/latex/base/article.cls" 1527456798 19823 fcbc01552b07b608574cbf8e1977e0c0 ""
  "C:/Program Files/MiKTeX 2.9/tex/latex/base/size10.clo" 1527456798 8294 b0f177401f895563eb19304d2389582d ""
  "C:/Program Files/MiKTeX 2.9/tex/latex/fontspec/fontspec.sty" 1510249534 1589 9f35dfbb28ed2e1e381b9563c9240f27 ""
  "C:/Program Files/MiKTeX 2.9/tex/latex/geometry/geometry.cfg" 1526151849 1099 b6078cb9f5824f08d323a859b6eb16e5 ""
  "C:/Program Files/MiKTeX 2.9/tex/latex/geometry/geometry.sty" 1526151849 42805 0653033a985e06c69a2a9cea9a95e31a ""
  "C:/Program Files/MiKTeX 2.9/tex/latex/graphics/keyval.sty" 1523175985 2678 6404d0c7d28505fb38ce0d86c2e28ae7 ""
  "C:/Program Files/MiKTeX 2.9/tex/latex/l3kernel/expl3-code.tex" 1527884890 942649 ee827259a0450410533c1154d6b90a90 ""
  "C:/Program Files/MiKTeX 2.9/tex/latex/l3kernel/expl3.sty" 1527884890 9867 56f717b45eda335155235a8b2fac005f ""
  "C:/Program Files/MiKTeX 2.9/tex/latex/l3kernel/l3pdfmode.def" 1527884890 13673 90ef0a66488e37d1503eec477bed4348 ""
  "C:/Program Files/MiKTeX 2.9/tex/latex/l3packages/xparse/xparse.sty" 1526144722 77213 9d7407dbdd9d11c497209c4b44354bb8 ""
  "C:/Users/ASUS/AppData/Local/MiKTeX/2.9/miktex/data/le/pdftex/pdflatex.fmt" 1529075098 4151642 858bcd4053fccdf07bfc72a372053eca ""
  "ref.aux" 1531374153 9 a94a2480d3289e625eea47cd1b285758 ""
  "ref.tex" 1531374151 5127 c9ef3f0d2120f359deda5a2898d46673 ""
  "y:/GitHub/learning-git/reference/ref.tex" 1531374151 5127 c9ef3f0d2120f359deda5a2898d46673 ""
  (generated)
  "ref.pdf"
  "ref.log"
